EESchema Schematic File Version 4
EELAYER 30 0
EELAYER END
$Descr A4 11693 8268
encoding utf-8
Sheet 1 1
Title "IZIGOBOARD"
Date "2020-07-08"
Rev "A"
Comp "IZITRON"
Comment1 ""
Comment2 ""
Comment3 ""
Comment4 ""
$EndDescr
NoConn ~ 1250 1770
$Comp
L open-project:MICRO-B_USB U1
U 1 1 5DE93580
P 1050 1670
F 0 "U1" H 1040 1990 59  0000 C CIB
F 1 "microUSB" V 850 1700 39  0000 C CIB
F 2 "MyFootPrint:FCI_10103594-0001LF" H 1050 1670 60  0001 C CNN
F 3 "/Users/cherciumihail/Desktop/Sync/Datasheet/USB/microUSB_B_FCI.pdf" H 1107 2001 60  0001 C CNN
F 4 "10118192-0001LF" H 1050 1340 39  0000 C CNN "Manufacture Ref"
F 5 "649-10118192-0001LF" H 1050 1670 50  0001 C CNN "Mouser"
	1    1050 1670
	1    0    0    -1  
$EndComp
$Comp
L device:Polyfuse_Small F1
U 1 1 5DE98979
P 1560 1280
F 0 "F1" H 1420 1210 59  0000 C CIB
F 1 "FUSE" H 1405 1290 39  0000 C CIB
F 2 "Fuse:Fuse_0805_2012Metric" H 1610 1080 50  0001 L CNN
F 3 "~" H 1560 1280 50  0001 C CNN
F 4 "0ZCK0050FF2E" H 1492 1362 39  0000 R CNN "Manufacture Ref"
F 5 "530-0ZCK0050FF2E" H 1560 1280 50  0001 C CNN "Mouser"
	1    1560 1280
	-1   0    0    1   
$EndComp
Wire Wire Line
	1250 1470 1560 1470
$Comp
L power:VBUS #PWR02
U 1 1 5DE9CAA8
P 1560 930
F 0 "#PWR02" H 1560 780 59  0001 C CIB
F 1 "VBUS" H 1575 1103 39  0000 C CIB
F 2 "" H 1560 930 50  0001 C CNN
F 3 "" H 1560 930 50  0001 C CNN
	1    1560 930 
	1    0    0    -1  
$EndComp
Wire Wire Line
	1560 1380 1560 1470
Wire Wire Line
	1560 930  1560 1050
$Comp
L power:VBUS #PWR09
U 1 1 5DE9F3BC
P 3770 1620
F 0 "#PWR09" H 3765 2020 59  0001 C CIB
F 1 "VBUS" V 3770 1830 39  0000 C CIB
F 2 "" H 3770 1620 50  0001 C CNN
F 3 "" H 3770 1620 50  0001 C CNN
	1    3770 1620
	0    1    1    0   
$EndComp
Wire Wire Line
	1250 1570 1970 1570
$Comp
L power:GND #PWR05
U 1 1 5DEA0380
P 2490 1620
F 0 "#PWR05" H 2490 1370 59  0001 C CIB
F 1 "GND" V 2490 1430 39  0000 C CIB
F 2 "" H 2490 1620 50  0001 C CNN
F 3 "" H 2490 1620 50  0001 C CNN
	1    2490 1620
	0    1    1    0   
$EndComp
Wire Wire Line
	1250 1670 1970 1670
Wire Wire Line
	1970 1420 1970 1570
Wire Wire Line
	3640 1620 3770 1620
Wire Wire Line
	2490 1620 2640 1620
Wire Wire Line
	1970 1420 2640 1420
Wire Wire Line
	2640 1820 1970 1820
Wire Wire Line
	1970 1670 1970 1820
$Comp
L power:GND #PWR03
U 1 1 5DEA89BC
P 1560 1940
F 0 "#PWR03" H 1560 1690 59  0001 C CIB
F 1 "GND" H 1560 1780 39  0000 C CIB
F 2 "" H 1560 1940 50  0001 C CNN
F 3 "" H 1560 1940 50  0001 C CNN
	1    1560 1940
	1    0    0    -1  
$EndComp
Wire Wire Line
	1250 1870 1560 1870
Wire Wire Line
	1560 1870 1560 1940
Wire Wire Line
	3640 1820 3770 1820
Text Label 3770 1420 0    50   ~ 0
USB_D-
Wire Wire Line
	3640 1420 3770 1420
$Comp
L izi-connectors:M_2 J1
U 1 1 5DEDEDBE
P 1855 5830
F 0 "J1" H 1925 7840 59  0000 C CIB
F 1 "M 2" H 1920 7750 39  0000 C CIB
F 2 "MyFootPrint:M.2_CONNECTOR" H 1855 5830 50  0001 C CNN
F 3 "" H 1855 5830 50  0001 C CNN
F 4 "2199119-4" H 1860 7650 50  0000 C CNN "REF"
F 5 "571-2199119-4 " H 1855 5830 50  0001 C CNN "MOUSER"
	1    1855 5830
	1    0    0    -1  
$EndComp
$Comp
L power:GND #PWR06
U 1 1 5DEFA799
P 2490 2860
F 0 "#PWR06" H 2490 2610 59  0001 C CIB
F 1 "GND" V 2490 2675 39  0000 C CIB
F 2 "" H 2490 2860 50  0001 C CNN
F 3 "" H 2490 2860 50  0001 C CNN
	1    2490 2860
	0    1    1    0   
$EndComp
Wire Wire Line
	1970 2910 1970 3060
Wire Wire Line
	1970 2660 2640 2660
Wire Wire Line
	2490 2860 2640 2860
Wire Wire Line
	2640 3060 1970 3060
Wire Wire Line
	1250 2910 1970 2910
Wire Wire Line
	3640 2860 3770 2860
Wire Wire Line
	1970 2660 1970 2810
Wire Wire Line
	1250 2810 1970 2810
Wire Wire Line
	3640 3060 3770 3060
Wire Wire Line
	1250 3110 1560 3110
Wire Wire Line
	1560 3110 1560 3170
Wire Wire Line
	3640 2660 3770 2660
$Comp
L power:GND #PWR04
U 1 1 5DEFA7F3
P 1560 3170
F 0 "#PWR04" H 1560 2920 59  0001 C CIB
F 1 "GND" H 1560 3015 39  0000 C CIB
F 2 "" H 1560 3170 50  0001 C CNN
F 3 "" H 1560 3170 50  0001 C CNN
	1    1560 3170
	1    0    0    -1  
$EndComp
Wire Wire Line
	1250 2710 1510 2710
Text Label 1510 3010 0    50   ~ 0
USB_ID
Wire Wire Line
	1250 3010 1510 3010
$Comp
L device:LED D1
U 1 1 5DF05108
P 2300 1050
F 0 "D1" H 2300 920 59  0000 C CIB
F 1 "LED GREEN 2x1.25" H 2300 1160 39  0000 C CIB
F 2 "MyFootPrint:LED_2.0x1.25" H 2300 1050 50  0001 C CNN
F 3 "~" H 2300 1050 50  0001 C CNN
F 4 "KPT-2012ZGC" H 2295 1230 39  0000 C CNN "Manufacture Ref"
F 5 "2217981" H 2300 1050 50  0001 C CNN "Farnell "
	1    2300 1050
	-1   0    0    1   
$EndComp
$Comp
L device:R R1
U 1 1 5DF073A4
P 1920 1050
F 0 "R1" V 1820 1050 59  0000 C CIB
F 1 "1k" V 1920 1055 39  0000 C CIB
F 2 "Resistor_SMD:R_0603_1608Metric" V 1850 1050 50  0001 C CNN
F 3 "~" H 1920 1050 50  0001 C CNN
	1    1920 1050
	0    1    1    0   
$EndComp
Wire Wire Line
	1770 1050 1560 1050
Connection ~ 1560 1050
Wire Wire Line
	1560 1050 1560 1180
Wire Wire Line
	2070 1050 2150 1050
$Comp
L power:GND #PWR07
U 1 1 5DF08520
P 2540 1050
F 0 "#PWR07" H 2540 800 59  0001 C CIB
F 1 "GND" V 2540 865 39  0000 C CIB
F 2 "" H 2540 1050 50  0001 C CNN
F 3 "" H 2540 1050 50  0001 C CNN
	1    2540 1050
	0    -1   -1   0   
$EndComp
Wire Wire Line
	2450 1050 2540 1050
$Comp
L SamacSys_Parts:RJMG1BD3B8K1ANR J5
U 1 1 5DF108E8
P 7510 5435
F 0 "J5" H 8560 5685 59  0000 C CIB
F 1 "RJ45" H 8560 5595 39  0000 C CIB
F 2 "SamacSys_Parts:RJMG1BD3B8K1ANR" H 9460 5535 50  0001 L CNN
F 3 "https://cdn.amphenol-icc.com/media/wysiwyg/files/drawing/rjmg1bd3b8k1anr.pdf" H 9460 5435 50  0001 L CNN
F 4 "AMPHENOL ICC (COMMERCIAL PRODUCTS) - RJMG1BD3B8K1ANR - CONNECTOR, RJ45, JACK, 1PORT, 8P8C" H 9460 5335 50  0001 L CNN "Description"
F 5 "13.35" H 9460 5235 50  0001 L CNN "Height"
F 6 "Amphenol" H 9460 5135 50  0001 L CNN "Manufacturer_Name"
F 7 "RJMG1BD3B8K1ANR" H 8550 4655 50  0000 C CNN "Manufacturer_Part_Number"
F 8 "523-RJMG1BD3B8K1ANR" H 9460 4935 50  0001 L CNN "Mouser Part Number"
F 9 "https://www.mouser.com/Search/Refine.aspx?Keyword=523-RJMG1BD3B8K1ANR" H 9460 4835 50  0001 L CNN "Mouser Price/Stock"
F 10 "" H 9460 4735 50  0001 L CNN "RS Part Number"
F 11 "" H 9460 4635 50  0001 L CNN "RS Price/Stock"
	1    7510 5435
	1    0    0    -1  
$EndComp
Wire Wire Line
	9610 5635 9875 5635
$Comp
L power:GND #PWR045
U 1 1 5DF17FF1
P 9910 5435
F 0 "#PWR045" H 9910 5185 59  0001 C CIB
F 1 "GND" V 9910 5250 39  0000 C CIB
F 2 "" H 9910 5435 50  0001 C CNN
F 3 "" H 9910 5435 50  0001 C CNN
	1    9910 5435
	0    -1   -1   0   
$EndComp
Wire Wire Line
	9610 5435 9910 5435
$Comp
L device:R R12
U 1 1 5DFED2F4
P 10450 5535
F 0 "R12" V 10350 5540 59  0000 C CIB
F 1 "333R" V 10450 5540 39  0000 C CIB
F 2 "Resistor_SMD:R_0603_1608Metric" V 10540 5375 50  0001 C CNN
F 3 "~" H 10540 5445 50  0001 C CNN
	1    10450 5535
	0    1    1    0   
$EndComp
Wire Wire Line
	9610 5535 10300 5535
Wire Wire Line
	10600 5535 10655 5535
$Comp
L power:GND #PWR029
U 1 1 5DF232DF
P 7320 6135
F 0 "#PWR029" H 7320 5885 59  0001 C CIB
F 1 "GND" H 7320 5975 39  0000 C CIB
F 2 "" H 7320 6135 50  0001 C CNN
F 3 "" H 7320 6135 50  0001 C CNN
	1    7320 6135
	1    0    0    -1  
$EndComp
Wire Wire Line
	7510 6035 7320 6035
Wire Wire Line
	7320 6035 7320 6135
$Comp
L power:GND #PWR038
U 1 1 5DF24135
P 9770 6145
F 0 "#PWR038" H 9770 5895 59  0001 C CIB
F 1 "GND" H 9770 5990 39  0000 C CIB
F 2 "" H 9770 6145 50  0001 C CNN
F 3 "" H 9770 6145 50  0001 C CNN
	1    9770 6145
	1    0    0    -1  
$EndComp
Wire Wire Line
	9610 5935 9770 5935
Wire Wire Line
	9770 5935 9770 6035
Wire Wire Line
	9610 6035 9770 6035
Connection ~ 9770 6035
Wire Wire Line
	9770 6035 9770 6145
$Comp
L device:C C9
U 1 1 5DF396DB
P 10410 6080
F 0 "C9" H 10490 6185 59  0000 C CIB
F 1 "100nF" H 10530 5990 39  0000 C CIB
F 2 "Capacitor_SMD:C_0603_1608Metric" H 10448 5930 50  0001 C CNN
F 3 "~" H 10410 6080 50  0001 C CNN
	1    10410 6080
	1    0    0    -1  
$EndComp
$Comp
L power:GND #PWR047
U 1 1 5DF3B3CD
P 10410 6230
F 0 "#PWR047" H 10410 5980 59  0001 C CIB
F 1 "GND" H 10410 6070 39  0000 C CIB
F 2 "" H 10410 6230 50  0001 C CNN
F 3 "" H 10410 6230 50  0001 C CNN
	1    10410 6230
	1    0    0    -1  
$EndComp
$Comp
L power:GND #PWR036
U 1 1 5DEC74AC
P 9460 2260
F 0 "#PWR036" H 9460 2010 59  0001 C CIB
F 1 "GND" V 9460 2070 39  0000 C CIB
F 2 "" H 9460 2260 50  0001 C CNN
F 3 "" H 9460 2260 50  0001 C CNN
	1    9460 2260
	0    -1   -1   0   
$EndComp
$Comp
L device:R R13
U 1 1 5DFED2F3
P 10330 1530
F 0 "R13" H 10435 1695 59  0000 C CIB
F 1 "150R" V 10330 1530 39  0000 C CIB
F 2 "Resistor_SMD:R_0603_1608Metric" V 10260 1530 50  0001 C CNN
F 3 "~" H 10330 1530 50  0001 C CNN
	1    10330 1530
	1    0    0    -1  
$EndComp
$Comp
L power:GND #PWR027
U 1 1 5DEC6AC9
P 6950 1560
F 0 "#PWR027" H 6950 1310 59  0001 C CIB
F 1 "GND" V 6950 1370 39  0000 C CIB
F 2 "" H 6950 1560 50  0001 C CNN
F 3 "" H 6950 1560 50  0001 C CNN
	1    6950 1560
	0    1    1    0   
$EndComp
$Comp
L device:R R14
U 1 1 5DECB732
P 10740 1530
F 0 "R14" H 10850 1690 59  0000 C CIB
F 1 "150R" V 10740 1530 39  0000 C CIB
F 2 "Resistor_SMD:R_0603_1608Metric" V 10670 1530 50  0001 C CNN
F 3 "~" H 10740 1530 50  0001 C CNN
	1    10740 1530
	1    0    0    -1  
$EndComp
$Comp
L power:VDD #PWR018
U 1 1 5DECF815
P 5750 1250
F 0 "#PWR018" H 5750 1100 59  0001 C CIB
F 1 "VDD" H 5750 1410 39  0000 C CIB
F 2 "" H 5750 1250 50  0001 C CNN
F 3 "" H 5750 1250 50  0001 C CNN
	1    5750 1250
	1    0    0    -1  
$EndComp
$Comp
L power:GND #PWR037
U 1 1 5DEC835A
P 9470 1360
F 0 "#PWR037" H 9470 1110 59  0001 C CIB
F 1 "GND" V 9470 1165 39  0000 C CIB
F 2 "" H 9470 1360 50  0001 C CNN
F 3 "" H 9470 1360 50  0001 C CNN
	1    9470 1360
	0    -1   -1   0   
$EndComp
$Comp
L device:R R5
U 1 1 5DEC2ACF
P 7050 2160
F 0 "R5" V 7160 2160 59  0000 C CIB
F 1 "1k" V 7050 2160 39  0000 C CIB
F 2 "Resistor_SMD:R_0603_1608Metric" V 7140 2000 50  0001 C CNN
F 3 "~" H 7140 2070 50  0001 C CNN
	1    7050 2160
	0    1    1    0   
$EndComp
NoConn ~ 7320 2360
$Comp
L device:R R2
U 1 1 5DEBD660
P 6300 1600
F 0 "R2" H 6420 1605 59  0000 C CIB
F 1 "22.1k" V 6300 1605 39  0000 C CIB
F 2 "Resistor_SMD:R_0603_1608Metric" V 6230 1600 50  0001 C CNN
F 3 "~" H 6300 1600 50  0001 C CNN
	1    6300 1600
	1    0    0    -1  
$EndComp
$Comp
L device:C C4
U 1 1 5DEB7E56
P 5900 2220
F 0 "C4" H 5980 2320 59  0000 C CIB
F 1 "100nF" H 6015 2125 39  0000 C CIB
F 2 "Capacitor_SMD:C_0603_1608Metric" H 5938 2070 50  0001 C CNN
F 3 "~" H 5900 2220 50  0001 C CNN
	1    5900 2220
	1    0    0    -1  
$EndComp
$Comp
L device:R R3
U 1 1 5DFED2F2
P 6300 2380
F 0 "R3" H 6420 2380 59  0000 C CIB
F 1 "47.5k" V 6300 2380 39  0000 C CIB
F 2 "Resistor_SMD:R_0603_1608Metric" V 6230 2380 50  0001 C CNN
F 3 "~" H 6300 2380 50  0001 C CNN
	1    6300 2380
	1    0    0    -1  
$EndComp
$Comp
L power:GND #PWR019
U 1 1 5DEB8D4F
P 5750 2630
F 0 "#PWR019" H 5750 2380 59  0001 C CIB
F 1 "GND" H 5755 2465 39  0000 C CIB
F 2 "" H 5750 2630 50  0001 C CNN
F 3 "" H 5750 2630 50  0001 C CNN
	1    5750 2630
	1    0    0    -1  
$EndComp
$Comp
L device:C C3
U 1 1 5DEB7E67
P 5590 2220
F 0 "C3" H 5670 2315 59  0000 C CIB
F 1 "4.7uF" H 5695 2125 39  0000 C CIB
F 2 "Capacitor_SMD:C_0603_1608Metric" H 5628 2070 50  0001 C CNN
F 3 "~" H 5590 2220 50  0001 C CNN
	1    5590 2220
	1    0    0    -1  
$EndComp
$Comp
L power:GND #PWR011
U 1 1 5DEB256C
P 5020 2630
F 0 "#PWR011" H 5020 2380 59  0001 C CIB
F 1 "GND" H 5025 2465 39  0000 C CIB
F 2 "" H 5020 2630 50  0001 C CNN
F 3 "" H 5020 2630 50  0001 C CNN
	1    5020 2630
	1    0    0    -1  
$EndComp
$Comp
L power:GND #PWR025
U 1 1 5DEBF321
P 6300 2630
F 0 "#PWR025" H 6300 2380 59  0001 C CIB
F 1 "GND" H 6305 2470 39  0000 C CIB
F 2 "" H 6300 2630 50  0001 C CNN
F 3 "" H 6300 2630 50  0001 C CNN
	1    6300 2630
	1    0    0    -1  
$EndComp
$Comp
L power:VBUS #PWR024
U 1 1 5DEC1951
P 6300 1260
F 0 "#PWR024" H 6300 1110 59  0001 C CIB
F 1 "VBUS" H 6315 1433 39  0000 C CIB
F 2 "" H 6300 1260 50  0001 C CNN
F 3 "" H 6300 1260 50  0001 C CNN
	1    6300 1260
	1    0    0    -1  
$EndComp
Connection ~ 5170 1960
Connection ~ 6780 1860
Wire Wire Line
	5750 2070 5590 2070
Wire Wire Line
	5590 2370 5590 2460
Wire Wire Line
	5750 2630 5750 2460
Wire Wire Line
	7320 1860 6780 1860
Wire Wire Line
	5750 1860 5750 2070
Wire Wire Line
	5900 2460 5900 2370
Wire Wire Line
	5590 2460 5750 2460
Wire Wire Line
	5900 2070 5750 2070
Wire Wire Line
	5750 2460 5900 2460
Wire Wire Line
	10330 1230 10330 1380
Wire Wire Line
	10740 1230 10740 1380
Wire Wire Line
	9320 1960 9470 1960
Wire Wire Line
	7320 2060 6300 2060
Wire Wire Line
	9320 2260 9460 2260
Wire Wire Line
	6300 2060 6300 2230
Wire Wire Line
	7200 2160 7320 2160
Wire Wire Line
	7320 1560 6950 1560
Wire Wire Line
	9320 1360 9470 1360
Wire Wire Line
	6900 2160 6780 2160
Wire Wire Line
	9320 1860 9470 1860
Wire Wire Line
	6780 2160 6780 1860
Wire Wire Line
	6300 1260 6300 1450
Wire Wire Line
	6300 1750 6300 2060
Wire Wire Line
	6300 2530 6300 2630
Wire Wire Line
	6780 1860 5750 1860
Wire Wire Line
	10740 1680 10740 1730
Wire Wire Line
	10740 2160 9320 2160
Wire Wire Line
	10740 2030 10740 2160
Wire Wire Line
	10330 1680 10330 1730
Wire Wire Line
	9320 2060 10330 2060
Wire Wire Line
	10330 2060 10330 2030
NoConn ~ 9320 1460
Connection ~ 5750 2070
NoConn ~ 7320 1360
Connection ~ 5020 2460
Connection ~ 5750 1860
NoConn ~ 9320 1560
Connection ~ 5750 2460
$Comp
L power:VBUS #PWR010
U 1 1 5DEAD900
P 5020 1260
F 0 "#PWR010" H 5020 1110 59  0001 C CIB
F 1 "VBUS" H 5035 1433 39  0000 C CIB
F 2 "" H 5020 1260 50  0001 C CNN
F 3 "" H 5020 1260 50  0001 C CNN
	1    5020 1260
	1    0    0    -1  
$EndComp
$Comp
L device:C C1
U 1 1 5DFED2F1
P 4860 2220
F 0 "C1" H 4935 2320 59  0000 C CIB
F 1 "4.7uF" H 4960 2120 39  0000 C CIB
F 2 "Capacitor_SMD:C_0603_1608Metric" H 4898 2070 50  0001 C CNN
F 3 "~" H 4860 2220 50  0001 C CNN
	1    4860 2220
	1    0    0    -1  
$EndComp
$Comp
L device:C C2
U 1 1 5DEAEE43
P 5170 2220
F 0 "C2" H 5245 2320 59  0000 C CIB
F 1 "100nF" H 5290 2125 39  0000 C CIB
F 2 "Capacitor_SMD:C_0603_1608Metric" H 5208 2070 50  0001 C CNN
F 3 "~" H 5170 2220 50  0001 C CNN
	1    5170 2220
	1    0    0    -1  
$EndComp
Connection ~ 6300 2060
NoConn ~ 9320 1760
Connection ~ 5020 1960
NoConn ~ 7320 1460
NoConn ~ 9320 1660
Wire Wire Line
	5170 1960 5170 2070
Wire Wire Line
	7270 1660 7320 1660
Wire Wire Line
	7270 1760 7320 1760
Wire Wire Line
	7320 1960 5170 1960
Wire Wire Line
	4860 2460 5020 2460
Wire Wire Line
	4860 2070 4860 1960
Wire Wire Line
	4860 1960 5020 1960
Wire Wire Line
	5020 2630 5020 2460
Wire Wire Line
	5020 1960 5020 1260
Wire Wire Line
	4860 2370 4860 2460
Wire Wire Line
	5020 1960 5170 1960
Wire Wire Line
	5020 2460 5170 2460
Wire Wire Line
	5170 2460 5170 2370
Wire Wire Line
	5750 1250 5750 1860
$Comp
L SamacSys_Parts:CP2102N-A01-GQFN20R IC1
U 1 1 5DE830AA
P 7320 1360
F 0 "IC1" H 8320 1625 59  0000 C CIB
F 1 "USB_to_UART" H 8320 1534 39  0000 C CIB
F 2 "SamacSys_Parts:CP2102NA02GQFN20" H 9170 1460 50  0001 L CNN
F 3 "http://www.silabs.com/documents/public/data-sheets/cp2102n-datasheet.pdf" H 9170 1360 50  0001 L CNN
F 4 "USB Interface IC USBXpress - USB to UART Bridge QFN20" H 9170 1260 50  0001 L CNN "Description"
F 5 "0.8" H 9170 1160 50  0001 L CNN "Height"
F 6 "Silicon Labs" H 9170 1060 50  0001 L CNN "Manufacturer_Name"
F 7 "CP2102N-A01-GQFN20R" H 7850 180 50  0000 L CNN "Manufacturer_Part_Number"
F 8 "634-CP21NA01GQFN20R" H 9170 860 50  0001 L CNN "Mouser Part Number"
F 9 "https://www.mouser.com/Search/Refine.aspx?Keyword=634-CP21NA01GQFN20R" H 9170 760 50  0001 L CNN "Mouser Price/Stock"
F 10 "" H 9170 660 50  0001 L CNN "RS Part Number"
F 11 "" H 9170 560 50  0001 L CNN "RS Price/Stock"
	1    7320 1360
	1    0    0    -1  
$EndComp
Text Label 7270 1660 2    50   ~ 0
USB_D+
Text Label 7270 1760 2    50   ~ 0
USB_D-
$Comp
L power:VDD #PWR041
U 1 1 5DED15E2
P 10330 1230
F 0 "#PWR041" H 10330 1080 59  0001 C CIB
F 1 "VDD" H 10347 1403 39  0000 C CIB
F 2 "" H 10330 1230 50  0001 C CNN
F 3 "" H 10330 1230 50  0001 C CNN
	1    10330 1230
	1    0    0    -1  
$EndComp
$Comp
L power:VDD #PWR044
U 1 1 5DED5883
P 10740 1230
F 0 "#PWR044" H 10740 1080 59  0001 C CIB
F 1 "VDD" H 10757 1403 39  0000 C CIB
F 2 "" H 10740 1230 50  0001 C CNN
F 3 "" H 10740 1230 50  0001 C CNN
	1    10740 1230
	1    0    0    -1  
$EndComp
Wire Notes Line
	480  3500 4460 3500
Wire Notes Line
	470  2200 4460 2200
Wire Notes Line
	4460 3010 11220 3010
Text Notes 1800 685  0    79   Italic 16
USB POWER/UART
Text Notes 2080 2390 0    79   Italic 16
USB (OTG)
Text Notes 1465 3700 0    79   Italic 16
CONNECTORS
Text Notes 8295 4940 0    79   Italic 16
ETHERNET
Text Notes 8010 645  0    79   Italic 16
USB/UART
$Comp
L open-project:MICRO-B_USB U2
U 1 1 5DFC7543
P 1050 2910
F 0 "U2" H 1040 3230 59  0000 C CIB
F 1 "microUSB" V 850 2940 39  0000 C CIB
F 2 "MyFootPrint:FCI_10103594-0001LF" H 1050 2910 60  0001 C CNN
F 3 "/Users/cherciumihail/Desktop/Sync/Datasheet/USB/microUSB_B_FCI.pdf" H 1107 3241 60  0001 C CNN
F 4 "10118192-0001LF" H 1050 2580 39  0000 C CNN "Manufacture Ref"
F 5 "649-10118192-0001LF" H 1050 2910 50  0001 C CNN "Mouser"
	1    1050 2910
	1    0    0    -1  
$EndComp
$Comp
L izigoboard-rescue:USBLC6-2SC6-ESD_Protection U3
U 1 1 5DE946E1
P 3140 1620
F 0 "U3" H 3140 2159 59  0000 C CIB
F 1 "USBLC6-2SC6" H 3140 2068 39  0000 C CIB
F 2 "TO_SOT_Packages_SMD:SOT-23-6" H 3790 1970 50  0001 C CNN
F 3 "http://www2.st.com/resource/en/datasheet/CD00050750.pdf" H 2890 1970 50  0001 C CNN
F 4 "USBLC6-2SC6" H 3140 1986 39  0000 C CNN "Manufacture Ref"
F 5 "511-USBLC6-2SC6" H 3140 1620 50  0001 C CNN "Mouser"
	1    3140 1620
	1    0    0    -1  
$EndComp
$Comp
L izigoboard-rescue:USBLC6-2SC6-ESD_Protection U4
U 1 1 5DFED2F0
P 3140 2860
F 0 "U4" H 3140 3399 59  0000 C CIB
F 1 "USBLC6-2SC6" H 3140 3308 39  0000 C CIB
F 2 "TO_SOT_Packages_SMD:SOT-23-6" H 3790 3210 50  0001 C CNN
F 3 "http://www2.st.com/resource/en/datasheet/CD00050750.pdf" H 2890 3210 50  0001 C CNN
F 4 "USBLC6-2SC6" H 3140 3226 39  0000 C CNN "Manufacture Ref"
F 5 "511-USBLC6-2SC6" H 3140 2860 50  0001 C CNN "Mouser"
	1    3140 2860
	1    0    0    -1  
$EndComp
$Comp
L power:PWR_FLAG #FLG01
U 1 1 5DFF2F10
P 1240 930
F 0 "#FLG01" H 1240 1005 59  0001 C CIB
F 1 "PWR_FLAG" H 1240 1103 39  0000 C CIB
F 2 "" H 1240 930 50  0001 C CNN
F 3 "~" H 1240 930 50  0001 C CNN
	1    1240 930 
	1    0    0    -1  
$EndComp
Wire Wire Line
	1240 930  1240 1050
Wire Wire Line
	1240 1050 1560 1050
$Comp
L power:PWR_FLAG #FLG02
U 1 1 5DFF3E6A
P 1850 1940
F 0 "#FLG02" H 1850 2015 59  0001 C CIB
F 1 "PWR_FLAG" H 1850 2100 39  0000 C CIB
F 2 "" H 1850 1940 50  0001 C CNN
F 3 "~" H 1850 1940 50  0001 C CNN
	1    1850 1940
	-1   0    0    1   
$EndComp
Wire Wire Line
	1850 1940 1850 1870
Wire Wire Line
	1850 1870 1560 1870
Connection ~ 1560 1870
Wire Wire Line
	5450 1250 5450 1860
Wire Wire Line
	5450 1860 5750 1860
$Comp
L power:VBUS #PWR01
U 1 1 5F090FEE
P 1095 4180
F 0 "#PWR01" H 1095 4030 59  0001 C CIB
F 1 "VBUS" V 1095 4390 39  0000 C CIB
F 2 "" H 1095 4180 50  0001 C CNN
F 3 "" H 1095 4180 50  0001 C CNN
	1    1095 4180
	0    -1   -1   0   
$EndComp
Wire Wire Line
	1455 4130 1140 4130
Wire Wire Line
	1140 4130 1140 4180
Wire Wire Line
	1140 4230 1455 4230
Wire Wire Line
	1095 4180 1140 4180
Connection ~ 1140 4180
Wire Wire Line
	1140 4180 1140 4230
$Comp
L power:GND #PWR08
U 1 1 5F092910
P 2740 4230
F 0 "#PWR08" H 2740 3980 59  0001 C CIB
F 1 "GND" V 2740 4035 39  0000 C CIB
F 2 "" H 2740 4230 50  0001 C CNN
F 3 "" H 2740 4230 50  0001 C CNN
	1    2740 4230
	0    -1   -1   0   
$EndComp
Wire Wire Line
	2255 4180 2690 4180
Wire Wire Line
	2690 4180 2690 4230
Wire Wire Line
	2690 4280 2255 4280
Wire Wire Line
	2740 4230 2690 4230
Connection ~ 2690 4230
Wire Wire Line
	2690 4230 2690 4280
Text Label 1140 4330 2    50   ~ 0
USART1_TX
Wire Wire Line
	1140 4330 1455 4330
Text Label 1140 4430 2    50   ~ 0
USART1_RX
Wire Wire Line
	1140 4430 1455 4430
Text Label 1140 4630 2    50   ~ 0
I2C1_SDA
Text Label 1140 4530 2    50   ~ 0
I2C1_SCL
Wire Wire Line
	1140 4530 1455 4530
Wire Wire Line
	1140 4630 1455 4630
Text Label 1140 4730 2    50   ~ 0
SPI1_SCK
Text Label 1140 4830 2    50   ~ 0
SPI1_MISO
Wire Wire Line
	1140 4830 1455 4830
Wire Wire Line
	1140 4730 1455 4730
Text Label 1140 5030 2    50   ~ 0
SPI1_CS0
Text Label 1140 4930 2    50   ~ 0
SPI1_MOSI
Wire Wire Line
	1140 5030 1455 5030
Wire Wire Line
	1140 4930 1455 4930
Text Label 1140 5130 2    50   ~ 0
SPI1_CS1
Wire Wire Line
	1140 5130 1455 5130
Text Label 1140 5230 2    50   ~ 0
SPI1_CS2
Wire Wire Line
	1140 5230 1455 5230
Text Label 1140 5430 2    50   ~ 0
ADC0
Text Label 1140 5530 2    50   ~ 0
ADC1
Wire Wire Line
	1140 5530 1455 5530
Wire Wire Line
	1140 5430 1455 5430
Text Label 1140 5630 2    50   ~ 0
PWM0
Wire Wire Line
	1140 5630 1455 5630
Text Label 1140 5730 2    50   ~ 0
PWM1
Wire Wire Line
	1140 5730 1455 5730
Text Label 1140 5830 2    50   ~ 0
PWM2
Wire Wire Line
	1140 5830 1455 5830
Text Label 1140 5930 2    50   ~ 0
PWM3
Wire Wire Line
	1140 5930 1455 5930
Text Label 1140 6030 2    50   ~ 0
PWM4
Wire Wire Line
	1140 6030 1455 6030
Text Label 1140 6130 2    50   ~ 0
PWM5
Wire Wire Line
	1140 6130 1455 6130
Text Label 1140 6230 2    50   ~ 0
IO0
Wire Wire Line
	1140 6230 1455 6230
Text Label 1140 6330 2    50   ~ 0
IO1
Wire Wire Line
	1140 6330 1455 6330
Text Label 1140 6530 2    50   ~ 0
IO3
Text Label 1140 6430 2    50   ~ 0
IO2
Wire Wire Line
	1140 6530 1455 6530
Wire Wire Line
	1140 6430 1455 6430
Text Label 1140 6930 2    50   ~ 0
IO7
Text Label 1140 6830 2    50   ~ 0
IO6
Text Label 1140 6730 2    50   ~ 0
IO5
Text Label 1140 6630 2    50   ~ 0
IO4
Wire Wire Line
	1140 6730 1455 6730
Wire Wire Line
	1140 6830 1455 6830
Wire Wire Line
	1140 6630 1455 6630
Wire Wire Line
	1140 6930 1455 6930
Text Label 1140 7230 2    50   ~ 0
IO10
Text Label 1140 7030 2    50   ~ 0
IO8
Text Label 1140 7330 2    50   ~ 0
IO11
Text Label 1140 7130 2    50   ~ 0
IO9
Wire Wire Line
	1140 7130 1455 7130
Wire Wire Line
	1140 7230 1455 7230
Wire Wire Line
	1140 7030 1455 7030
Wire Wire Line
	1140 7330 1455 7330
Text Label 1140 7430 2    50   ~ 0
IO12
Text Label 1140 7530 2    50   ~ 0
IO13
Wire Wire Line
	1140 7430 1455 7430
Wire Wire Line
	1140 7530 1455 7530
Text Label 2690 4380 0    50   ~ 0
NRST
Wire Wire Line
	2255 4380 2690 4380
Text Label 2690 4480 0    50   ~ 0
BOOT
Wire Wire Line
	2255 4480 2690 4480
Text Label 2690 4580 0    50   ~ 0
WKUP
Wire Wire Line
	2255 4580 2690 4580
Text Label 2690 4680 0    50   ~ 0
CAN_H
Text Label 2690 4780 0    50   ~ 0
CAN_L
Wire Wire Line
	2255 4680 2690 4680
Wire Wire Line
	2255 4780 2690 4780
Text Label 2690 4980 0    50   ~ 0
USB_DP
Text Label 2690 4880 0    50   ~ 0
USB_DN
Wire Wire Line
	2255 4980 2690 4980
Wire Wire Line
	2255 4880 2690 4880
Wire Wire Line
	2255 5180 2690 5180
Wire Wire Line
	2255 5080 2690 5080
Text Label 2690 5180 0    50   ~ 0
USB_VBUS
Text Label 2690 5080 0    50   ~ 0
USB_ID
Text Label 2690 5380 0    50   ~ 0
ETH_TXP
Wire Wire Line
	2255 5380 2690 5380
Text Label 2690 5480 0    50   ~ 0
ETH_TXN
Wire Wire Line
	2255 5480 2690 5480
Text Label 2690 5580 0    50   ~ 0
ETH_RXP
Wire Wire Line
	2255 5580 2690 5580
Text Label 2690 5680 0    50   ~ 0
ETH_RXN
Wire Wire Line
	2255 5680 2690 5680
Text Label 2690 5780 0    50   ~ 0
ETH_LED_G
Wire Wire Line
	2255 5780 2690 5780
Text Label 2690 5880 0    50   ~ 0
ETH_LED_Y
Wire Wire Line
	2255 5880 2690 5880
Text Label 2690 5980 0    50   ~ 0
DSI_CKP
Wire Wire Line
	2255 5980 2690 5980
Text Label 2690 6080 0    50   ~ 0
DSI_CKN
Wire Wire Line
	2255 6080 2690 6080
Text Label 2690 6180 0    50   ~ 0
DSI_D0P
Wire Wire Line
	2255 6180 2690 6180
Text Label 2690 6280 0    50   ~ 0
DSI_D0N
Wire Wire Line
	2255 6280 2690 6280
Text Label 2690 6380 0    50   ~ 0
DSI_D1P
Text Label 2690 6480 0    50   ~ 0
DSI_D1N
Wire Wire Line
	2255 6480 2690 6480
Wire Wire Line
	2255 6380 2690 6380
Text Label 2690 6580 0    50   ~ 0
MIC_CKOUT
Wire Wire Line
	2255 6580 2690 6580
Text Label 2690 6680 0    50   ~ 0
MIC_DATAIN_L
Wire Wire Line
	2255 6680 2690 6680
Wire Wire Line
	2255 6780 2690 6780
Text Label 2690 6780 0    50   ~ 0
MIC_DATAIN_R
Text Label 2690 6880 0    50   ~ 0
IO14
Wire Wire Line
	2255 6880 2690 6880
Wire Wire Line
	2255 6980 2690 6980
Text Label 2690 6980 0    50   ~ 0
IO15
Wire Wire Line
	2255 7180 2690 7180
Wire Wire Line
	2255 7080 2690 7080
Text Label 2690 7180 0    50   ~ 0
IO17
Text Label 2690 7080 0    50   ~ 0
IO16
Wire Wire Line
	2255 7280 2690 7280
Wire Wire Line
	2255 7380 2690 7380
Wire Wire Line
	2255 7480 2690 7480
Text Label 2690 7480 0    50   ~ 0
IO20
Text Label 2690 7380 0    50   ~ 0
IO19
Text Label 2690 7280 0    50   ~ 0
IO18
$Comp
L device:LED D2
U 1 1 5F0A6793
P 10330 1880
F 0 "D2" H 10330 1755 59  0000 C CIB
F 1 "LED GREEN 2x1.25" H 10480 2055 39  0000 C CIB
F 2 "MyFootPrint:LED_2.0x1.25" H 10330 1880 50  0001 C CNN
F 3 "~" H 10330 1880 50  0001 C CNN
F 4 "KPT-2012ZGC" H 10410 1975 39  0000 C CNN "Manufacture Ref"
F 5 "2217981" H 10330 1880 50  0001 C CNN "Farnell "
	1    10330 1880
	0    -1   -1   0   
$EndComp
$Comp
L device:LED D3
U 1 1 5F0A3425
P 10740 1880
F 0 "D3" H 10735 1750 59  0000 C CIB
F 1 "LED GREEN 2x1.25" H 10890 2050 39  0000 C CIB
F 2 "MyFootPrint:LED_2.0x1.25" H 10740 1880 50  0001 C CNN
F 3 "~" H 10740 1880 50  0001 C CNN
F 4 "KPT-2012ZGC" H 10820 1975 39  0000 C CNN "Manufacture Ref"
F 5 "2217981" H 10740 1880 50  0001 C CNN "Farnell "
	1    10740 1880
	0    -1   -1   0   
$EndComp
Wire Wire Line
	9135 3830 8975 3830
Wire Wire Line
	8555 3750 8555 3830
Wire Wire Line
	8975 4190 8975 4110
Wire Wire Line
	8975 3830 8555 3830
Wire Wire Line
	9435 4130 9435 4190
Wire Wire Line
	9735 3830 10025 3830
Wire Wire Line
	10025 3830 10025 3910
Wire Wire Line
	10025 4110 10025 4190
Wire Wire Line
	8555 3830 8555 3910
Wire Wire Line
	8975 3910 8975 3830
Wire Wire Line
	10025 3745 10025 3830
$Comp
L device:C_Small C6
U 1 1 5ECFF147
P 8555 4010
F 0 "C6" H 8640 4095 59  0000 C CIB
F 1 "10uF" H 8650 3935 39  0000 C CIB
F 2 "Capacitor_SMD:C_0603_1608Metric" H 8555 4010 39  0001 C CIB
F 3 "~" H 8555 4010 39  0001 C CIB
F 4 "https://fr.farnell.com/murata/grm21br61c106ke15k/condensateur-10-f-16v-10-x5r-0805/dp/2611940" H 630 460 39  0001 C CIB "Distributor"
F 5 "GRM21BR61C106KE15K" H 630 460 39  0001 C CIB "Manufacture Ref"
	1    8555 4010
	1    0    0    -1  
$EndComp
$Comp
L device:C_Small C8
U 1 1 5ECD3D2D
P 10025 4010
F 0 "C8" H 10120 4095 59  0000 C CIB
F 1 "10uF" H 10125 3935 39  0000 C CIB
F 2 "Capacitor_SMD:C_0603_1608Metric" H 10025 4010 39  0001 C CIB
F 3 "~" H 10025 4010 39  0001 C CIB
F 4 "https://fr.farnell.com/murata/grm21br61c106ke15k/condensateur-10-f-16v-10-x5r-0805/dp/2611940" H 2100 460 39  0001 C CIB "Distributor"
F 5 "GRM21BR61C106KE15K" H 2100 460 39  0001 C CIB "Manufacture Ref"
	1    10025 4010
	1    0    0    -1  
$EndComp
$Comp
L power:GND #PWR043
U 1 1 5ECB8F51
P 10025 4190
F 0 "#PWR043" H 10025 3940 59  0001 C CIB
F 1 "GND" H 10030 4045 39  0000 C CIB
F 2 "" H 10025 4190 39  0001 C CIB
F 3 "" H 10025 4190 39  0001 C CIB
	1    10025 4190
	1    0    0    -1  
$EndComp
$Comp
L device:C_Small C7
U 1 1 5F06B7CB
P 8975 4010
F 0 "C7" H 9060 4090 59  0000 C CIB
F 1 "10uF" H 9070 3935 39  0000 C CIB
F 2 "Capacitor_SMD:C_0603_1608Metric" H 8975 4010 39  0001 C CIB
F 3 "~" H 8975 4010 39  0001 C CIB
F 4 "https://fr.farnell.com/murata/grm21br61c106ke15k/condensateur-10-f-16v-10-x5r-0805/dp/2611940" H 1050 460 39  0001 C CIB "Distributor"
F 5 "GRM21BR61C106KE15K" H 1050 460 39  0001 C CIB "Manufacture Ref"
	1    8975 4010
	1    0    0    -1  
$EndComp
$Comp
L izigoboard-rescue:LM3480-3.3-regul U5
U 1 1 5ECB303A
P 9435 3830
F 0 "U5" H 9435 4065 59  0000 C CIB
F 1 "MCP1812BT-033/TT " H 9435 3975 39  0000 C CIB
F 2 "TO_SOT_Packages_SMD:SOT-23" H 9435 4055 39  0001 C CIB
F 3 "http://www.ti.com/lit/ds/symlink/lm3480.pdf" H 9435 3830 39  0001 C CIB
F 4 "MCP1812BT-033/TT " H 9435 3830 39  0001 C CIB "MOUSER"
F 5 "MCP1812BT-033/TT" H 9435 4165 39  0001 C CIB "FAB REF"
	1    9435 3830
	1    0    0    -1  
$EndComp
$Comp
L power:+3V3 #PWR042
U 1 1 5EC774DF
P 10025 3745
F 0 "#PWR042" H 10195 3465 59  0001 C CIB
F 1 "+3V3" H 10040 3918 39  0000 C CIB
F 2 "" H 10025 3745 39  0001 C CIB
F 3 "" H 10025 3745 39  0001 C CIB
	1    10025 3745
	1    0    0    -1  
$EndComp
$Comp
L power:GND #PWR035
U 1 1 5EF7E054
P 8975 4190
F 0 "#PWR035" H 8975 3940 59  0001 C CIB
F 1 "GND" H 8980 4045 39  0000 C CIB
F 2 "" H 8975 4190 39  0001 C CIB
F 3 "" H 8975 4190 39  0001 C CIB
	1    8975 4190
	1    0    0    -1  
$EndComp
$Comp
L power:GND #PWR040
U 1 1 5ECE1140
P 9435 4190
F 0 "#PWR040" H 9435 3940 59  0001 C CIB
F 1 "GND" H 9435 4045 39  0000 C CIB
F 2 "" H 9435 4190 39  0001 C CIB
F 3 "" H 9435 4190 39  0001 C CIB
	1    9435 4190
	1    0    0    -1  
$EndComp
Connection ~ 10025 3830
Connection ~ 8555 3830
Connection ~ 8975 3830
$Comp
L power:VBUS #PWR033
U 1 1 5F0B0686
P 8555 3750
F 0 "#PWR033" H 8555 3600 59  0001 C CIB
F 1 "VBUS" H 8560 3925 39  0000 C CIB
F 2 "" H 8555 3750 50  0001 C CNN
F 3 "" H 8555 3750 50  0001 C CNN
	1    8555 3750
	1    0    0    -1  
$EndComp
Text Label 1510 2710 0    50   ~ 0
USB_VBUS
$Comp
L device:R R10
U 1 1 5F0BE6C4
P 9675 5205
F 0 "R10" H 9555 5365 59  0000 C CIB
F 1 "49.9" V 9675 5205 39  0000 C CIB
F 2 "Resistor_SMD:R_0603_1608Metric" V 9605 5205 50  0001 C CNN
F 3 "~" H 9675 5205 50  0001 C CNN
	1    9675 5205
	1    0    0    -1  
$EndComp
$Comp
L device:R R11
U 1 1 5F0BE6D2
P 9875 5205
F 0 "R11" H 9995 5365 59  0000 C CIB
F 1 "49.9" V 9875 5205 39  0000 C CIB
F 2 "Resistor_SMD:R_0603_1608Metric" V 9805 5205 50  0001 C CNN
F 3 "~" H 9875 5205 50  0001 C CNN
	1    9875 5205
	1    0    0    -1  
$EndComp
Wire Wire Line
	9675 5055 9675 4925
Wire Wire Line
	9875 4925 9875 5055
Wire Wire Line
	9610 5735 10410 5735
Wire Wire Line
	9610 5835 9675 5835
Wire Wire Line
	9875 5355 9875 5635
Connection ~ 9875 5635
Wire Wire Line
	9875 5635 9970 5635
Wire Wire Line
	9675 5355 9675 5835
Connection ~ 9675 5835
Wire Wire Line
	9675 5835 9970 5835
$Comp
L Mechanical:MountingHole H1
U 1 1 5F0365B5
P 4770 3255
F 0 "H1" H 4935 3300 59  0000 C CIB
F 1 "MountingHole" H 5075 3215 39  0000 C CIB
F 2 "Mounting_Holes:MountingHole_2.7mm_M2.5_Pad_Via" H 4770 3255 50  0001 C CNN
F 3 "~" H 4770 3255 50  0001 C CNN
	1    4770 3255
	1    0    0    -1  
$EndComp
Text Notes 5430 3140 2    79   Italic 16
Mounting Hole
$Comp
L Mechanical:MountingHole H2
U 1 1 5F0CA434
P 4770 3450
F 0 "H2" H 4940 3490 59  0000 C CIB
F 1 "MountingHole" H 5075 3400 39  0000 C CIB
F 2 "Mounting_Holes:MountingHole_2.7mm_M2.5_Pad_Via" H 4770 3450 50  0001 C CNN
F 3 "~" H 4770 3450 50  0001 C CNN
	1    4770 3450
	1    0    0    -1  
$EndComp
$Comp
L Mechanical:MountingHole H3
U 1 1 5F0CA706
P 4770 3660
F 0 "H3" H 4935 3710 59  0000 C CIB
F 1 "MountingHole" H 5070 3620 39  0000 C CIB
F 2 "Mounting_Holes:MountingHole_2.7mm_M2.5_Pad_Via" H 4770 3660 50  0001 C CNN
F 3 "~" H 4770 3660 50  0001 C CNN
	1    4770 3660
	1    0    0    -1  
$EndComp
$Comp
L power:PWR_FLAG #FLG03
U 1 1 5DFF7971
P 5450 1250
F 0 "#FLG03" H 5450 1325 59  0001 C CIB
F 1 "PWR_FLAG" H 5450 1410 39  0000 C CIB
F 2 "" H 5450 1250 50  0001 C CNN
F 3 "~" H 5450 1250 50  0001 C CNN
	1    5450 1250
	1    0    0    -1  
$EndComp
Text Notes 7225 3170 2    79   Italic 16
BUTTONS
$Comp
L SamacSys_Parts:BTN_SLIDER BT1
U 1 1 5F0F62DF
P 5855 3535
F 0 "BT1" V 5555 3605 59  0000 L CIB
F 1 "BTN_SLIDER" V 6125 3470 39  0000 L CIB
F 2 "MyFootPrint:JS102011JCQN" H 5855 3535 50  0001 C CNN
F 3 "" H 5855 3535 50  0001 C CNN
F 4 "JS102011JCQN" V 6225 3655 50  0000 C CNN "REF"
F 5 "JS102011JCQN" H 5855 3535 50  0001 C CNN "MOUSER"
F 6 "2931764" H 5855 3535 50  0001 C CNN "FARNELL"
F 7 "C221659" H 5855 3535 50  0001 C CNN "LCSC"
	1    5855 3535
	0    1    1    0   
$EndComp
$Comp
L power:GND #PWR021
U 1 1 5F0F7BE3
P 6105 3685
F 0 "#PWR021" H 6105 3435 59  0001 C CIB
F 1 "GND" V 6105 3485 39  0000 C CIB
F 2 "" H 6105 3685 50  0001 C CNN
F 3 "" H 6105 3685 50  0001 C CNN
	1    6105 3685
	0    -1   -1   0   
$EndComp
$Comp
L power:+3V3 #PWR020
U 1 1 5F0F9143
P 6105 3385
F 0 "#PWR020" H 6275 3105 59  0001 C CIB
F 1 "+3V3" V 6105 3595 39  0000 C CIB
F 2 "" H 6105 3385 39  0001 C CIB
F 3 "" H 6105 3385 39  0001 C CIB
	1    6105 3385
	0    1    1    0   
$EndComp
Text Label 5805 3535 2    50   ~ 0
BOOT
Wire Wire Line
	5855 3535 5805 3535
Wire Wire Line
	7020 3640 7020 3795
Wire Wire Line
	8555 4110 8555 4190
$Comp
L power:GND #PWR034
U 1 1 5ECF6773
P 8555 4190
F 0 "#PWR034" H 8555 3940 59  0001 C CIB
F 1 "GND" H 8560 4045 39  0000 C CIB
F 2 "" H 8555 4190 39  0001 C CIB
F 3 "" H 8555 4190 39  0001 C CIB
	1    8555 4190
	1    0    0    -1  
$EndComp
Wire Notes Line
	8410 4695 11215 4695
Wire Wire Line
	7020 3795 7625 3795
Wire Wire Line
	8220 3795 8220 3640
$Comp
L SamacSys_Parts:PTS815_SJM_250_SMTR_LFS BT3
U 1 1 5F10261D
P 7020 3640
F 0 "BT3" H 7620 3215 59  0000 C CIB
F 1 "PTS815_SJM_250_SMTR_LFS" H 7620 3310 39  0000 C CIB
F 2 "SamacSys_Parts:PTS815SJM250SMTRLFS" H 8070 3740 50  0001 L CNN
F 3 "https://componentsearchengine.com/Datasheets/1/PTS815 SJM 250 SMTR LFS.pdf" H 8070 3640 50  0001 L CNN
F 4 "Tactile Switches Tact Switch, 12 VDC, 50 mA, 4.2x3.2, 2.5mm H, 180gf, J leads" H 8070 3540 50  0001 L CNN "Description"
F 5 "2.7" H 8070 3440 50  0001 L CNN "Height"
F 6 "611-PTS815SJM250SMTR" H 8070 3340 50  0001 L CNN "Mouser Part Number"
F 7 "https://www.mouser.com/Search/Refine.aspx?Keyword=611-PTS815SJM250SMTR" H 8070 3240 50  0001 L CNN "Mouser Price/Stock"
F 8 "C & K COMPONENTS" H 8070 3140 50  0001 L CNN "Manufacturer_Name"
F 9 "PTS815 SJM 250 SMTR LFS" H 8070 3040 50  0001 L CNN "Manufacturer_Part_Number"
	1    7020 3640
	1    0    0    1   
$EndComp
$Comp
L power:GND #PWR030
U 1 1 5F11E604
P 7625 3855
F 0 "#PWR030" H 7625 3605 59  0001 C CIB
F 1 "GND" H 7630 3695 39  0000 C CIB
F 2 "" H 7625 3855 50  0001 C CNN
F 3 "" H 7625 3855 50  0001 C CNN
	1    7625 3855
	1    0    0    -1  
$EndComp
Wire Wire Line
	7020 3540 7020 3390
Wire Wire Line
	7020 3390 8220 3390
Wire Wire Line
	8220 3390 8220 3540
Text Label 6855 3540 2    50   ~ 0
NRST
Wire Wire Line
	6855 3540 7020 3540
Connection ~ 7020 3540
Text Label 4000 3850 2    50   ~ 0
CAN_L
Text Label 4000 3950 2    50   ~ 0
CAN_H
Text Label 9470 1960 0    50   ~ 0
USART1_RX
Text Label 9470 1860 0    50   ~ 0
USART1_TX
Text Label 4425 6645 2    50   ~ 0
SPI1_MOSI
Text Label 4425 6545 2    50   ~ 0
SPI1_MISO
Text Label 4425 6845 2    50   ~ 0
SPI1_CS1
Text Label 4425 6745 2    50   ~ 0
SPI1_CS0
Text Label 4425 6445 2    50   ~ 0
SPI1_SCK
Text Label 4425 6945 2    50   ~ 0
SPI1_CS2
Text Label 4425 6245 2    50   ~ 0
I2C1_SCL
Text Label 4425 6345 2    50   ~ 0
I2C1_SDA
Text Label 4425 7045 2    50   ~ 0
ADC0
Text Label 4425 7145 2    50   ~ 0
ADC1
Text Label 4925 6645 0    50   ~ 0
PWM4
Text Label 4925 6545 0    50   ~ 0
PWM3
Text Label 4925 6345 0    50   ~ 0
PWM1
Text Label 4925 6745 0    50   ~ 0
PWM5
Text Label 4925 6245 0    50   ~ 0
PWM0
Text Label 4925 6445 0    50   ~ 0
PWM2
Text Label 7095 5635 2    50   ~ 0
ETH_TXP
Text Label 7095 5735 2    50   ~ 0
ETH_RXP
Text Label 9970 5635 0    50   ~ 0
ETH_TXN
Text Label 9970 5835 0    50   ~ 0
ETH_RXN
Text Label 6565 5435 2    50   ~ 0
ETH_LED_Y
Text Label 3770 2660 0    50   ~ 0
USB_DN
Text Label 3770 3060 0    50   ~ 0
USB_DP
Text Label 3770 2860 0    50   ~ 0
USB_VBUS
Text Label 4420 5615 2    50   ~ 0
IO10
Text Label 4420 4915 2    50   ~ 0
IO3
Text Label 4420 5215 2    50   ~ 0
IO6
Text Label 4420 5015 2    50   ~ 0
IO4
Text Label 4420 4815 2    50   ~ 0
IO2
Text Label 4420 4715 2    50   ~ 0
IO1
Text Label 4420 5315 2    50   ~ 0
IO7
Text Label 4420 5715 2    50   ~ 0
IO11
Text Label 4420 5115 2    50   ~ 0
IO5
Text Label 4420 5415 2    50   ~ 0
IO8
Text Label 4420 4615 2    50   ~ 0
IO0
Text Label 4420 5515 2    50   ~ 0
IO9
Text Label 4420 5815 2    50   ~ 0
IO12
Text Label 4920 5815 0    50   ~ 0
IO13
Text Label 4920 5415 0    50   ~ 0
IO17
Text Label 4920 5515 0    50   ~ 0
IO16
Text Label 4920 5615 0    50   ~ 0
IO15
Text Label 4920 5315 0    50   ~ 0
IO18
Text Label 4920 5215 0    50   ~ 0
IO19
Text Label 4920 5715 0    50   ~ 0
IO14
Text Label 4920 5115 0    50   ~ 0
IO20
Connection ~ 7415 5635
Connection ~ 7215 5735
Wire Wire Line
	7415 4935 7415 5065
Wire Wire Line
	7215 5065 7215 4935
Wire Wire Line
	7415 5635 7510 5635
Wire Wire Line
	7215 5365 7215 5735
Wire Wire Line
	7415 5365 7415 5635
Wire Wire Line
	7215 5735 7510 5735
$Comp
L device:R R7
U 1 1 5F0BC695
P 7415 5215
F 0 "R7" H 7495 5370 59  0000 C CIB
F 1 "49.9" V 7415 5215 39  0000 C CIB
F 2 "Resistor_SMD:R_0603_1608Metric" V 7345 5215 50  0001 C CNN
F 3 "~" H 7415 5215 50  0001 C CNN
	1    7415 5215
	1    0    0    -1  
$EndComp
$Comp
L device:R R6
U 1 1 5F0B4057
P 7215 5215
F 0 "R6" H 7125 5370 59  0000 C CIB
F 1 "49.9" V 7215 5210 39  0000 C CIB
F 2 "Resistor_SMD:R_0603_1608Metric" V 7145 5215 50  0001 C CNN
F 3 "~" H 7215 5215 50  0001 C CNN
	1    7215 5215
	1    0    0    -1  
$EndComp
Wire Wire Line
	7095 5735 7215 5735
Wire Wire Line
	7095 5635 7415 5635
Wire Notes Line
	8405 3015 8405 4700
Text Label 6035 4255 2    50   ~ 0
WKUP
Wire Wire Line
	6035 4255 6145 4255
Wire Wire Line
	6145 4510 7345 4510
Wire Wire Line
	6145 4355 6145 4510
Wire Wire Line
	7345 4510 7345 4355
Wire Wire Line
	7345 4105 7345 4255
Wire Wire Line
	6145 4105 7345 4105
Wire Wire Line
	6145 4255 6145 4105
$Comp
L SamacSys_Parts:PTS815_SJM_250_SMTR_LFS BT2
U 1 1 5F12C7F6
P 6145 4355
F 0 "BT2" H 6745 3930 59  0000 C CIB
F 1 "PTS815_SJM_250_SMTR_LFS" H 6745 4025 39  0000 C CIB
F 2 "SamacSys_Parts:PTS815SJM250SMTRLFS" H 7195 4455 50  0001 L CNN
F 3 "https://componentsearchengine.com/Datasheets/1/PTS815 SJM 250 SMTR LFS.pdf" H 7195 4355 50  0001 L CNN
F 4 "Tactile Switches Tact Switch, 12 VDC, 50 mA, 4.2x3.2, 2.5mm H, 180gf, J leads" H 7195 4255 50  0001 L CNN "Description"
F 5 "2.7" H 7195 4155 50  0001 L CNN "Height"
F 6 "611-PTS815SJM250SMTR" H 7195 4055 50  0001 L CNN "Mouser Part Number"
F 7 "https://www.mouser.com/Search/Refine.aspx?Keyword=611-PTS815SJM250SMTR" H 7195 3955 50  0001 L CNN "Mouser Price/Stock"
F 8 "C & K COMPONENTS" H 7195 3855 50  0001 L CNN "Manufacturer_Name"
F 9 "PTS815 SJM 250 SMTR LFS" H 7195 3755 50  0001 L CNN "Manufacturer_Part_Number"
	1    6145 4355
	1    0    0    1   
$EndComp
Connection ~ 6145 4255
$Comp
L power:GND #PWR031
U 1 1 5F1394B0
P 7870 4510
F 0 "#PWR031" H 7870 4260 59  0001 C CIB
F 1 "GND" H 7875 4350 39  0000 C CIB
F 2 "" H 7870 4510 50  0001 C CNN
F 3 "" H 7870 4510 50  0001 C CNN
	1    7870 4510
	0    -1   -1   0   
$EndComp
$Comp
L device:R R9
U 1 1 5F13A02A
P 7600 4510
F 0 "R9" V 7680 4685 59  0000 C CIB
F 1 "0" V 7600 4510 39  0000 C CIB
F 2 "Resistor_SMD:R_0603_1608Metric" V 7690 4350 50  0001 C CNN
F 3 "~" H 7690 4420 50  0001 C CNN
	1    7600 4510
	0    1    1    0   
$EndComp
Wire Wire Line
	7450 4510 7345 4510
Connection ~ 7345 4510
Wire Wire Line
	7750 4510 7870 4510
$Comp
L power:+3V3 #PWR032
U 1 1 5F13C1BD
P 7875 4355
F 0 "#PWR032" H 7875 4205 59  0001 C CIB
F 1 "+3V3" V 7875 4560 39  0000 C CIB
F 2 "" H 7875 4355 39  0001 C CIB
F 3 "" H 7875 4355 39  0001 C CIB
	1    7875 4355
	0    1    1    0   
$EndComp
$Comp
L device:R R8
U 1 1 5F13E237
P 7600 4355
F 0 "R8" V 7525 4535 59  0000 C CIB
F 1 "NC" V 7600 4355 39  0000 C CIB
F 2 "Resistor_SMD:R_0603_1608Metric" V 7690 4195 50  0001 C CNN
F 3 "~" H 7690 4265 50  0001 C CNN
	1    7600 4355
	0    1    1    0   
$EndComp
Wire Wire Line
	7345 4355 7450 4355
Connection ~ 7345 4355
Wire Wire Line
	7750 4355 7875 4355
Text Label 4425 7445 2    50   ~ 0
MIC_DATAIN_R
Text Label 4425 7345 2    50   ~ 0
MIC_DATAIN_L
Text Label 4425 7245 2    50   ~ 0
MIC_CKOUT
Text Label 4925 6845 0    50   ~ 0
DSI_CKP
Text Label 4925 6945 0    50   ~ 0
DSI_CKN
Text Label 4925 7045 0    50   ~ 0
DSI_D0P
Text Label 4925 7145 0    50   ~ 0
DSI_D0N
Text Label 4925 7245 0    50   ~ 0
DSI_D1P
Text Label 4925 7345 0    50   ~ 0
DSI_D1N
$Comp
L Mechanical:MountingHole H5
U 1 1 5F141E8B
P 4770 4100
F 0 "H5" H 4935 4150 59  0000 C CIB
F 1 "MountingM2" H 5045 4060 39  0000 C CIB
F 2 "MyFootPrint:NUT_4871" H 4770 4100 50  0001 C CNN
F 3 "~" H 4770 4100 50  0001 C CNN
	1    4770 4100
	1    0    0    -1  
$EndComp
Wire Notes Line
	4460 480  4460 4210
$Comp
L power:GND #PWR016
U 1 1 5F150239
P 5070 5015
F 0 "#PWR016" H 5070 4765 59  0001 C CIB
F 1 "GND" V 5070 4815 39  0000 C CIB
F 2 "" H 5070 5015 50  0001 C CNN
F 3 "" H 5070 5015 50  0001 C CNN
	1    5070 5015
	0    -1   -1   0   
$EndComp
Wire Wire Line
	4920 5015 5070 5015
$Comp
L power:+3V3 #PWR015
U 1 1 5F151704
P 5070 4915
F 0 "#PWR015" H 5240 4635 59  0001 C CIB
F 1 "+3V3" V 5070 5125 39  0000 C CIB
F 2 "" H 5070 4915 39  0001 C CIB
F 3 "" H 5070 4915 39  0001 C CIB
	1    5070 4915
	0    1    1    0   
$EndComp
$Comp
L power:+3V3 #PWR014
U 1 1 5F1539E8
P 5070 4815
F 0 "#PWR014" H 5240 4535 59  0001 C CIB
F 1 "+3V3" V 5070 5025 39  0000 C CIB
F 2 "" H 5070 4815 39  0001 C CIB
F 3 "" H 5070 4815 39  0001 C CIB
	1    5070 4815
	0    1    1    0   
$EndComp
Wire Wire Line
	4920 4915 5070 4915
Wire Wire Line
	5070 4815 4920 4815
$Comp
L power:VBUS #PWR013
U 1 1 5F15498A
P 5070 4715
F 0 "#PWR013" H 5065 5115 59  0001 C CIB
F 1 "VBUS" V 5070 4925 39  0000 C CIB
F 2 "" H 5070 4715 50  0001 C CNN
F 3 "" H 5070 4715 50  0001 C CNN
	1    5070 4715
	0    1    1    0   
$EndComp
$Comp
L power:VBUS #PWR012
U 1 1 5F155C69
P 5070 4615
F 0 "#PWR012" H 5065 5015 59  0001 C CIB
F 1 "VBUS" V 5070 4825 39  0000 C CIB
F 2 "" H 5070 4615 50  0001 C CNN
F 3 "" H 5070 4615 50  0001 C CNN
	1    5070 4615
	0    1    1    0   
$EndComp
Wire Wire Line
	4920 4615 5070 4615
Wire Wire Line
	5070 4715 4920 4715
$Comp
L power:GND #PWR017
U 1 1 5F156872
P 5075 7445
F 0 "#PWR017" H 5075 7195 59  0001 C CIB
F 1 "GND" V 5075 7245 39  0000 C CIB
F 2 "" H 5075 7445 50  0001 C CNN
F 3 "" H 5075 7445 50  0001 C CNN
	1    5075 7445
	0    -1   -1   0   
$EndComp
Wire Wire Line
	4925 7445 5075 7445
Wire Notes Line
	5910 7780 5930 4705
Text Notes 10135 3215 2    79   Italic 16
LDO
Wire Notes Line
	4460 4210 5520 4210
Wire Notes Line
	5520 3010 5520 4700
Wire Notes Line
	5520 4700 8405 4700
$Comp
L izigoboard-rescue:Conn_02x13_Odd_Even-conn J3
U 1 1 5F19D99A
P 4620 5215
F 0 "J3" H 4670 6021 59  0000 C CIB
F 1 "Left" H 4670 5932 39  0000 C CIB
F 2 "Connector_PinHeader_2.54mm:PinHeader_2x13_P2.54mm_Vertical" H 4620 5215 50  0001 C CNN
F 3 "~" H 4620 5215 50  0001 C CNN
	1    4620 5215
	1    0    0    -1  
$EndComp
$Comp
L izigoboard-rescue:Conn_02x13_Odd_Even-conn J4
U 1 1 5F1A421E
P 4625 6845
F 0 "J4" H 4675 7651 59  0000 C CIB
F 1 "Right" H 4675 7562 39  0000 C CIB
F 2 "Connector_PinHeader_2.54mm:PinHeader_2x13_P2.54mm_Vertical" H 4625 6845 50  0001 C CNN
F 3 "~" H 4625 6845 50  0001 C CNN
	1    4625 6845
	1    0    0    -1  
$EndComp
$Comp
L Mechanical:MountingHole H4
U 1 1 5F1EBF23
P 4770 3880
F 0 "H4" H 4935 3930 59  0000 C CIB
F 1 "MountingHole" H 5070 3840 39  0000 C CIB
F 2 "Mounting_Holes:MountingHole_2.7mm_M2.5_Pad_Via" H 4770 3880 50  0001 C CNN
F 3 "~" H 4770 3880 50  0001 C CNN
	1    4770 3880
	1    0    0    -1  
$EndComp
Text Label 3770 1820 0    50   ~ 0
USB_D+
Wire Wire Line
	7625 3855 7625 3795
Connection ~ 7625 3795
Wire Wire Line
	7625 3795 8220 3795
$Comp
L device:Ferrite_Bead_Small FB1
U 1 1 5F7AC1F9
P 10410 3830
F 0 "FB1" V 10285 3830 39  0000 C CNB
F 1 "120" V 10545 3830 39  0000 C CIB
F 2 "Inductors_SMD:L_0603_HandSoldering" V 10340 3830 50  0001 C CNN
F 3 "~" H 10410 3830 50  0001 C CNN
F 4 "BLM18PG121SN1D" H 10410 3830 50  0001 C CNN "REF"
	1    10410 3830
	0    1    1    0   
$EndComp
Wire Wire Line
	10025 3830 10310 3830
Text GLabel 10740 3830 2    50   Output ~ 0
3V3_ETH
Wire Wire Line
	10510 3830 10740 3830
Text GLabel 6415 5835 0    50   Input ~ 0
3V3_ETH
$Comp
L power:GND #PWR023
U 1 1 5DF38593
P 6880 6225
F 0 "#PWR023" H 6880 5975 59  0001 C CIB
F 1 "GND" H 6880 6070 39  0000 C CIB
F 2 "" H 6880 6225 50  0001 C CNN
F 3 "" H 6880 6225 50  0001 C CNN
	1    6880 6225
	1    0    0    -1  
$EndComp
$Comp
L device:C C5
U 1 1 5DF358F0
P 6880 6075
F 0 "C5" H 6970 6170 59  0000 C CIB
F 1 "100nF" H 7010 5980 39  0000 C CIB
F 2 "Capacitor_SMD:C_0603_1608Metric" H 6918 5925 50  0001 C CNN
F 3 "~" H 6880 6075 50  0001 C CNN
	1    6880 6075
	1    0    0    -1  
$EndComp
$Comp
L device:R R17
U 1 1 5F7B4F7A
P 6605 5835
F 0 "R17" V 6710 5835 59  0000 C CIB
F 1 "0R" V 6605 5835 39  0000 C CNB
F 2 "Resistor_SMD:R_0603_1608Metric" V 6535 5835 50  0001 C CNN
F 3 "~" H 6605 5835 50  0001 C CNN
	1    6605 5835
	0    1    1    0   
$EndComp
Wire Wire Line
	6880 5835 6880 5925
Wire Wire Line
	7510 5835 6880 5835
Wire Wire Line
	6755 5835 6880 5835
Connection ~ 6880 5835
Wire Wire Line
	6415 5835 6455 5835
$Comp
L device:R R18
U 1 1 5F7BA46E
P 10625 5735
F 0 "R18" V 10730 5735 59  0000 C CIB
F 1 "0R" V 10625 5735 39  0000 C CNB
F 2 "Resistor_SMD:R_0603_1608Metric" V 10555 5735 50  0001 C CNN
F 3 "~" H 10625 5735 50  0001 C CNN
	1    10625 5735
	0    1    1    0   
$EndComp
Text Label 10655 5535 0    50   ~ 0
ETH_LED_G
Wire Wire Line
	10410 5930 10410 5735
Connection ~ 10410 5735
Wire Wire Line
	10410 5735 10475 5735
Wire Wire Line
	7510 5535 7200 5535
$Comp
L power:GND #PWR026
U 1 1 5DF18DFD
P 7200 5535
F 0 "#PWR026" H 7200 5285 59  0001 C CIB
F 1 "GND" V 7200 5350 39  0000 C CIB
F 2 "" H 7200 5535 50  0001 C CNN
F 3 "" H 7200 5535 50  0001 C CNN
	1    7200 5535
	0    1    1    0   
$EndComp
Wire Wire Line
	6565 5435 6745 5435
$Comp
L device:R R4
U 1 1 5DF19A87
P 6895 5435
F 0 "R4" V 6800 5435 59  0000 C CIB
F 1 "333R" V 6895 5440 39  0000 C CIB
F 2 "Resistor_SMD:R_0603_1608Metric" V 6985 5275 50  0001 C CNN
F 3 "~" H 6985 5345 50  0001 C CNN
	1    6895 5435
	0    1    1    0   
$EndComp
Wire Wire Line
	7045 5435 7510 5435
Text GLabel 10825 5735 2    50   Input ~ 0
3V3_ETH
Wire Wire Line
	10775 5735 10825 5735
Wire Wire Line
	7215 4935 7415 4935
Text GLabel 6955 4935 0    50   Input ~ 0
3V3_ETH
Wire Wire Line
	6955 4935 7215 4935
Connection ~ 7215 4935
Wire Wire Line
	9675 4925 9875 4925
Text GLabel 10235 4925 2    50   Input ~ 0
3V3_ETH
Wire Wire Line
	9875 4925 10235 4925
Connection ~ 9875 4925
$Comp
L device:R R15
U 1 1 5F7C80C4
P 3640 3720
F 0 "R15" V 3530 3720 59  0000 C CIB
F 1 "60R" V 3640 3720 39  0000 C CNB
F 2 "Resistor_SMD:R_0603_1608Metric" V 3570 3720 50  0001 C CNN
F 3 "~" H 3640 3720 50  0001 C CNN
	1    3640 3720
	0    1    1    0   
$EndComp
$Comp
L izigoboard-rescue:Screw_Terminal_01x02-conn J2
U 1 1 5F15CD85
P 4305 3850
F 0 "J2" H 4250 4045 59  0000 L CIB
F 1 "CAN" H 4240 3965 39  0000 L CIB
F 2 "TerminalBlock_Phoenix:TerminalBlock_Phoenix_MPT-0,5-2-2.54_1x02_P2.54mm_Horizontal" H 4305 3850 50  0001 C CNN
F 3 "~" H 4305 3850 50  0001 C CNN
	1    4305 3850
	1    0    0    -1  
$EndComp
Wire Wire Line
	4000 3850 4065 3850
Wire Wire Line
	4000 3950 4065 3950
$Comp
L device:R R16
U 1 1 5F7D08B1
P 3640 4075
F 0 "R16" V 3745 4075 59  0000 C CIB
F 1 "60R" V 3640 4075 39  0000 C CNB
F 2 "Resistor_SMD:R_0603_1608Metric" V 3570 4075 50  0001 C CNN
F 3 "~" H 3640 4075 50  0001 C CNN
	1    3640 4075
	0    1    1    0   
$EndComp
$Comp
L Connector:Conn_01x02_Male J6
U 1 1 5F7D1591
P 3050 3850
F 0 "J6" H 3165 3975 59  0000 C CIB
F 1 "JUMPER" H 3145 3665 39  0000 C CNB
F 2 "Pin_Headers:Pin_Header_Straight_1x02_Pitch2.54mm" H 3050 3850 50  0001 C CNN
F 3 "~" H 3050 3850 50  0001 C CNN
	1    3050 3850
	1    0    0    -1  
$EndComp
Wire Wire Line
	3790 3720 4065 3720
Wire Wire Line
	4065 3720 4065 3850
Connection ~ 4065 3850
Wire Wire Line
	4065 3850 4105 3850
Wire Wire Line
	4065 3950 4065 4075
Wire Wire Line
	4065 4075 3790 4075
Connection ~ 4065 3950
Wire Wire Line
	4065 3950 4105 3950
Wire Wire Line
	3490 4075 3305 4075
Wire Wire Line
	3305 4075 3305 3950
Wire Wire Line
	3305 3950 3250 3950
Wire Wire Line
	3250 3850 3305 3850
Wire Wire Line
	3305 3850 3305 3720
Wire Wire Line
	3305 3720 3490 3720
$EndSCHEMATC
